import org.apache.tinkerpop.gremlin.hadoop.structure.io.FileSystemStorage
// Read a graph from HDFS_based Gry-file into memory and return traversal
// 
public class Goutput {
    FileSystemStorage hdfs
    def Goutput(FileSystemStorage hdfs){
	this.hdfs = hdfs;
    }
    def ex1(ver){
	println("ex1 .. ver: "+ver)
	return this.getTr( "example1-"+ver)
    }
    def ex2(layers,children){
        def fname = "example2." + layers + "-" + children
	println("ex2 .. : "+fname)
	return this.getTr( fname)
    }
    
    def getTr(fname){
	def fn = 'output/'+fname+'/~g/part-r-00000'
	println("Input file: "+fn)
	if(!this.hdfs.exists(fn)){
	    println("Not found")
	    return
	}
	def graph = JanusGraphFactory.open('conf/janusgraph-inmemory.properties')
	def p = new org.apache.hadoop.fs.Path(fn)
	def fd = hdfs.fs.open( p )
	def rdr = graph.io(IoCore.gryo()).reader().create()
	// read the graph from Gry-file into memory
	rdr.readGraph(fd,graph)
	return graph.traversal()
    }	

    
}
